Siesta Version  : 5.0.0-beta1
Architecture    : ----
Compiler version: GNU-11.4.0
Compiler flags  : -DGRID_DP -DBROYDEN_DP -DON_DP -fallow-argument-mismatch;-O3 -march=native
PP flags        : ----
Libraries       : ----
Parallelisations: MPI
GEMM3M support
NetCDF support
NetCDF-4 support
Lua support

Runtime information:
* Directory : /home/fnpedron/Siesta/siesta-dev/Tests/10.Functionals/work/vdw_vv
* Running in serial mode (only 1 MPI rank).
>> Start of run:  27-OCT-2023   8:54:18

                           *********************** 
                           *  WELCOME TO SIESTA  * 
                           *********************** 

reinit: Reading from standard input
reinit: Dumping input in INPUT_TMP.01301
************************** Dump of input data file ****************************
%include ../../basejob.fdf
SystemLabel     vdw_vv
xc.functional   VDW
xc.authors      VV
ReparametrizePseudos F
************************** End of input data file *****************************

reinit: -----------------------------------------------------------------------
reinit: System Name: Graphite
reinit: -----------------------------------------------------------------------
reinit: System Label: vdw_vv
reinit: -----------------------------------------------------------------------

initatom: Reading input for the pseudopotentials and atomic orbitals ----------
Species number:   1 Atomic number:    6 Label: C


---- Processing specs for species: C
Ground state valence configuration:   2s02  2p02
Reading pseudopotential information in formatted form from:
  /home/fnpedron/Siesta/siesta-dev/Tests/Pseudos/C.psf

---- Pseudopotential check for C 

Pseudized shells:
2s( 2.00) rc: 1.49
2p( 2.00) rc: 1.52
3d( 0.00) rc: 1.58
Valence configuration for ps generation: (assumed as above)
For C, standard SIESTA heuristics set lmxkb to 3
 (one more than the basis l, including polarization orbitals).
Use PS.lmax or PS.KBprojectors blocks to override.
C pseudopotential only contains V_ls up to l=2 -- lmxkb reset.

<basis_specs>
===============================================================================
C                    Z=   6    Mass=  12.011        Charge= 0.17977+309
Lmxo=2 Lmxkb= 2    BasisType=split      Semic=F
L=0  Nsemic=0  Cnfigmx=2
          i=1  nzeta=1  polorb=0  (2s)
            splnorm:   0.15000    
               vcte:    40.000    
               rinn:  -0.90000    
               qcoe:    0.0000    
               qyuk:    0.0000    
               qwid:   0.10000E-01
                rcs:    0.0000    
            lambdas:    1.0000    
L=1  Nsemic=0  Cnfigmx=2
          i=1  nzeta=1  polorb=1  (2p)  (to be polarized perturbatively)
            splnorm:   0.15000    
               vcte:    40.000    
               rinn:  -0.90000    
               qcoe:    0.0000    
               qyuk:    0.0000    
               qwid:   0.10000E-01
                rcs:    0.0000    
            lambdas:    1.0000    
L=2  Nsemic=0  Cnfigmx=3
          i=1  nzeta=0  polorb=0  (3d)  (perturbative polarization orbital) (from 2p)
-------------------------------------------------------------------------------
L=0  Nkbl=1  erefs: 0.17977+309
L=1  Nkbl=1  erefs: 0.17977+309
L=2  Nkbl=1  erefs: 0.17977+309
===============================================================================
</basis_specs>

Filter: Requested cutoff:   50.000000 Ry
Using PAO.SplitTailNorm
atom: Called for C                     (Z =   6)

read_vps: Pseudopotential generation method:
read_vps: ATM3      Troullier-Martins                       
Valence charge in pseudo generation:    4.00000

xc_check: Exchange-correlation functional:
xc_check: VDW Vydrov-vanVoorhis
xc_check: WARNING: Pseudopotential generated with LDA CA functional
V l=0 = -2*Zval/r beyond r=  1.4666
V l=1 = -2*Zval/r beyond r=  1.5038
V l=2 = -2*Zval/r beyond r=  1.5612
All V_l potentials equal beyond r=  1.5612
This should be close to max(r_c) in ps generation
All pots = -2*Zval/r beyond r=  1.5612
Using small-core scheme (local charge) for Vlocal

VLOCAL_FROM_CHLOCAL: 99.0% of the norm of Vloc inside     17.809 Ry
VLOCAL_FROM_CHLOCAL: 99.9% of the norm of Vloc inside     40.586 Ry
atom: Maximum radius for chlocal:    1.88329
atom: Maximum radius for r*vlocal+2*Zval:    1.72547

KBgen: Kleinman-Bylander projectors: 
GHOST: No ghost state for L =  0
   l= 0   rc=  1.747182   el= -1.021344   Ekb=  5.166475   kbcos=  0.304030
GHOST: No ghost state for L =  1
   l= 1   rc=  1.747182   el= -0.416723   Ekb= -4.322687   kbcos= -0.375645
GHOST: No ghost state for L =  2
   l= 2   rc=  1.955272   el=  0.002326   Ekb= -1.015380   kbcos= -0.009953

KBgen: Total number of Kleinman-Bylander projectors:   9
atom: -------------------------------------------------------------------------

atom: SANKEY-TYPE ORBITALS:

SPLIT: Orbitals with angular momentum L= 0

SPLIT: Basis orbitals for state 2s

SPLIT: PAO cut-off radius determined from an
SPLIT: energy shift=  0.003675 Ry
Split based on tail norm

   izeta = 1
                 lambda =    1.000000
                     rc =    4.993604
                 energy =   -1.017391
                kinetic =    0.854955
    potential(screened) =   -1.872346
       potential(ionic) =   -5.438874
PAO Filter: Cutoff used:   24.50 Ry
PAO Filter: diagnostic kin energy tol:    0.003000 Ry
PAO Filter: Nominal cutoff (before filtering):   27.46 Ry
Filter:    Number of eigenfunctions  of the
           filtering kernel (total, used)= 26  6

SPLIT: Orbitals with angular momentum L= 1

SPLIT: Basis orbitals for state 2p

SPLIT: PAO cut-off radius determined from an
SPLIT: energy shift=  0.003675 Ry
Split based on tail norm

   izeta = 1
                 lambda =    1.000000
                     rc =    6.099293
                 energy =   -0.412840
                kinetic =    2.475141
    potential(screened) =   -2.887981
       potential(ionic) =   -6.335501
PAO Filter: Cutoff used:   24.50 Ry
PAO Filter: diagnostic kin energy tol:    0.003000 Ry
PAO Filter: Nominal cutoff (before filtering):   41.21 Ry
Filter:    Number of eigenfunctions  of the
           filtering kernel (total, used)= 30  7

POLgen: Perturbative polarization orbital with L=  2

POLgen: Polarization orbital for state 2p
Split based on tail norm

   izeta = 1
                     rc =    6.099293
                 energy =    1.074351
                kinetic =    2.208663
    potential(screened) =   -1.134312
       potential(ionic) =   -3.921513
PAO Filter: diagnostic kin energy tol:    0.003000 Ry
PAO Filter: Nominal cutoff (before filtering):   44.95 Ry
Filter:    Number of eigenfunctions  of the
           filtering kernel (total, used)= 30  7
atom: Total number of Sankey-type orbitals:  9

atm_pop: Valence configuration (for local Pseudopot. screening):
 2s( 2.00)                                                            
 2p( 2.00)                                                            
 3d( 0.00)                                                            
Vna: chval, zval:    4.00000   4.00000

Vna:  Cut-off radius for the neutral-atom potential:   6.099293
VNA Filter: diagnostic kinetic energy tol:    0.003000 Ry
VNA Filter: Nominal cutoff (before filtering):   21.93 Ry
VNA Filter: Cutoff used:    50.00 Ry
Filter:    Number of eigenfunctions  of the
           filtering kernel (total, used)= 38 12

atom: _________________________________________________________________________

prinput: Basis input 

PAO.BasisType split     

%block ChemicalSpeciesLabel
    1    6 C                       # Species index, atomic number, species label
%endblock ChemicalSpeciesLabel

%block PAO.Basis                 # Define Basis set
# WARNING: This information might be incomplete!
C                     2                    # Species label, number of l-shells
 n=2   0   1                         # n, l, Nzeta 
   4.994   
   1.000   
 n=2   1   1 P   1                   # n, l, Nzeta, Polarization, NzetaPol
   6.099   
   1.000   
%endblock PAO.Basis

prinput: ----------------------------------------------------------------------

Dumping basis to NetCDF file C.ion.nc
coor:   Atomic-coordinates input format  =     Fractional

siesta: Atomic coordinates (Bohr) and species
siesta:      0.00000   0.00000   0.00000  1        1
siesta:      0.00000   0.00000   6.33814  1        2
siesta:     -0.00000   2.68503   0.00000  1        3
siesta:      2.32531   1.34252   6.33814  1        4

siesta: System type = bulk      

initatomlists: Number of atoms, orbitals, and projectors:      4    36    36

siesta: ******************** Simulation parameters ****************************
siesta:
siesta: The following are some of the parameters of the simulation.
siesta: A complete list of the parameters used, including default values,
siesta: can be found in file out.fdf
siesta:
redata: Spin configuration                          = none
redata: Number of spin components                   = 1
redata: Time-Reversal Symmetry                      = T
redata: Spin spiral                                 = F
redata: Long output                                 =   F
redata: Number of Atomic Species                    =        1
redata: Charge density info will appear in .RHO file
redata: Write Mulliken Pop.                         = NO
redata: Matel table size (NRTAB)                    =     1024
redata: Mesh Cutoff                                 =    50.0000 Ry
redata: Net charge of the system                    =     0.0000 |e|
redata: Min. number of SCF Iter                     =        0
redata: Max. number of SCF Iter                     =     1000
redata: SCF convergence failure will abort job
redata: SCF mix quantity                            = Hamiltonian
redata: Mix DM or H after convergence               =   F
redata: Recompute H after scf cycle                 =   F
redata: Mix DM in first SCF step                    =   T
redata: Write Pulay info on disk                    =   F
redata: New DM Occupancy tolerance                  = 0.000000000001
redata: No kicks to SCF
redata: DM Mixing Weight for Kicks                  =     0.5000
redata: Require Harris convergence for SCF          =   F
redata: Harris energy tolerance for SCF             =     0.000100 eV
redata: Require DM convergence for SCF              =   T
redata: DM tolerance for SCF                        =     0.000100
redata: Require EDM convergence for SCF             =   F
redata: EDM tolerance for SCF                       =     0.001000 eV
redata: Require H convergence for SCF               =   T
redata: Hamiltonian tolerance for SCF               =     0.001000 eV
redata: Require (free) Energy convergence for SCF   =   F
redata: (free) Energy tolerance for SCF             =     0.000100 eV
redata: Using DFT-D3 dispersion                     =   F
redata: Using Saved Data (generic)                  =   F
redata: Use continuation files for DM               =   T
redata: Neglect nonoverlap interactions             =   F
redata: Method of Calculation                       = Diagonalization
redata: Electronic Temperature                      =   299.9863 K
redata: Fix the spin of the system                  =   F
redata: Max. number of TDED Iter                    =        1
redata: Number of TDED substeps                     =        3
redata: Dynamics option                             = Single-point calculation
mix.SCF: Pulay mixing                            = Pulay
mix.SCF:    Variant                              = stable
mix.SCF:    History steps                        = 2
mix.SCF:    Linear mixing weight                 =     0.250000
mix.SCF:    Mixing weight                        =     0.250000
mix.SCF:    SVD condition                        = 0.1000E-07
redata: Save all siesta data in one NC              =   F
redata: ***********************************************************************

%block SCF.Mixers
  Pulay
%endblock SCF.Mixers

%block SCF.Mixer.Pulay
  # Mixing method
  method pulay
  variant stable

  # Mixing options
  weight 0.2500
  weight.linear 0.2500
  history 2
%endblock SCF.Mixer.Pulay

DM_history_depth set to one: no extrapolation allowed by default for geometry relaxation
Size of DM history Fstack: 1
Total number of electrons:    16.000000
Total ionic charge:    16.000000

* ProcessorY, Blocksize:    1  37


* Orbital distribution balance (max,min):    36    36

 Kpoints in:           25 . Kpoints trimmed:           25

siesta: k-grid: Number of k-points = 25
siesta: k-points from cutoff
siesta: k-cutoff (effective) =     6.152 Ang
siesta: k-point supercell and displacements
siesta: k-grid:     0     5     0      0.000
siesta: k-grid:     5     0     0      0.000
siesta: k-grid:     0     0     2      0.500

diag: Algorithm                                     = D&C
diag: Parallel over k                               =   F
diag: Use parallel 2D distribution                  =   F
diag: Parallel block-size                           = 37
diag: Parallel distribution                         =     1 x     1
diag: Used triangular part                          = Lower
diag: Absolute tolerance                            =  0.100E-15
diag: Orthogonalization factor                      =  0.100E-05
diag: Memory factor                                 =  1.0000

superc: Internal auxiliary supercell:     7 x     7 x     3  =     147
superc: Number of atoms, orbitals, and projectors:    588   5292   5292


ts: **************************************************************
ts: Save H and S matrices                           =    F
ts: Save DM and EDM matrices                        =    F
ts: Only save the overlap matrix S                  =    F
ts: **************************************************************

************************ Begin: TS CHECKS AND WARNINGS ************************
************************ End: TS CHECKS AND WARNINGS **************************


                     ====================================
                        Single-point calculation
                     ====================================

superc: Internal auxiliary supercell:     7 x     7 x     3  =     147
superc: Number of atoms, orbitals, and projectors:    588   5292   5292

outcell: Unit cell vectors (Ang):
        2.461000    0.000000    0.000000
       -1.230500    2.131289    0.000000
        0.000000    0.000000    6.708000

outcell: Cell vector modules (Ang)   :    2.461000    2.461000    6.708000
outcell: Cell angles (23,13,12) (deg):     90.0000     90.0000    120.0000
outcell: Cell volume (Ang**3)        :     35.1841
<dSpData1D:S at geom step 0
  <sparsity:sparsity for geom step 0
    nrows_g=36 nrows=36 sparsity=48.2870 nnzs=62580, refcount: 7>
  <dData1D:(new from dSpData1D) n=62580, refcount: 1>
refcount: 1>
new_DM -- step:     1
Initializing Density Matrix...

Attempting to read DM from file... Failed...
DM filled with atomic data:
<dSpData2D:DM initialized from atoms
  <sparsity:sparsity for geom step 0
    nrows_g=36 nrows=36 sparsity=48.2870 nnzs=62580, refcount: 8>
  <dData2D:DM n=62580 m=1, refcount: 1>
refcount: 1>
No. of atoms with KB's overlaping orbs in proc 0. Max # of overlaps:      70     333

InitMesh: MESH = 10 x 10 x 30 = 3000
InitMesh: Mesh cutoff (required, used) =    50.000    55.279 Ry
New grid distribution [1]: sub = 2

stepf: Fermi-Dirac step function

siesta: Program's energy decomposition (eV):
siesta: Ebs     =      -238.331958
siesta: Eions   =       997.132105
siesta: Ena     =       199.450464
siesta: Ekin    =       400.457078
siesta: Enl     =       -33.170594
siesta: Eso     =         0.000000
siesta: Edftu   =         0.000000
siesta: DEna    =         1.271395
siesta: DUscf   =         0.711189
siesta: DUext   =         0.000000
siesta: Ex      =      -169.427305
siesta: Ec      =       -17.670864
siesta: Exc     =      -187.098169
siesta: EbV     =         0.000000
siesta: eta*DQ  =         0.000000
siesta: Emadel  =         0.000000
siesta: Emeta   =         0.000000
siesta: Emolmec =         0.000000
siesta: Ekinion =         0.000000
siesta: Eharris =      -607.000573
siesta: Etot    =      -615.510742
siesta: FreeEng =      -615.510742

        iscf     Eharris(eV)        E_KS(eV)     FreeEng(eV)     dDmax    Ef(eV) dHmax(eV)
   scf:    1     -607.000573     -615.510742     -615.510742  1.312120 -4.762604  0.279233
timer: Routine,Calls,Time,% = IterSCF        1       0.105  14.12
   scf:    2     -615.516485     -615.513668     -615.513668  0.002438 -4.698321  0.189427
   scf:    3     -615.518667     -615.516395     -615.516395  0.004158 -4.556413  0.013759
   scf:    4     -615.516431     -615.516415     -615.516415  0.000478 -4.556585  0.008550
   scf:    5     -615.516429     -615.516423     -615.516423  0.000531 -4.557002  0.003623
   scf:    6     -615.516426     -615.516425     -615.516425  0.000093 -4.557231  0.001810
   scf:    7     -615.516426     -615.516425     -615.516425  0.000112 -4.557445  0.000340
   scf:    8     -615.516425     -615.516425     -615.516425  0.000022 -4.557491  0.000166

SCF Convergence by DM+H criterion
max |DM_out - DM_in|         :     0.0000218543
max |H_out - H_in|      (eV) :     0.0001660836
SCF cycle converged after 8 iterations

Using DM_out to compute the final energy and forces
No. of atoms with KB's overlaping orbs in proc 0. Max # of overlaps:      70     333

siesta: E_KS(eV) =             -615.5164

siesta: E_KS - E_eggbox =      -615.5164

siesta: Atomic forces (eV/Ang):
----------------------------------------
   Tot   -0.000000    0.000000   -0.000000
----------------------------------------
   Max    0.021988
   Res    0.011827    sqrt( Sum f_i^2 / 3N )
----------------------------------------
   Max    0.021988    constrained

Stress tensor Voigt[x,y,z,yz,xz,xy] (kbar):     -781.73     -782.76       76.34       -0.00       -0.00       -0.89
(Free)E + p*V (eV/cell)     -604.6231
Target enthalpy (eV/cell)     -615.5164

siesta: Program's energy decomposition (eV):
siesta: Ebs     =      -239.118405
siesta: Eions   =       997.132105
siesta: Ena     =       199.450464
siesta: Ekin    =       399.530261
siesta: Enl     =       -33.050639
siesta: Eso     =         0.000000
siesta: Edftu   =         0.000000
siesta: DEna    =         1.906205
siesta: DUscf   =         0.683495
siesta: DUext   =         0.000000
siesta: Ex      =      -169.217643
siesta: Ec      =       -17.686463
siesta: Exc     =      -186.904106
siesta: EbV     =         0.000000
siesta: eta*DQ  =         0.000000
siesta: Emadel  =         0.000000
siesta: Emeta   =         0.000000
siesta: Emolmec =         0.000000
siesta: Ekinion =         0.000000
siesta: Eharris =      -615.516425
siesta: Etot    =      -615.516425
siesta: FreeEng =      -615.516425

siesta: Final energy (eV):
siesta:  Band Struct. =    -239.118405
siesta:       Kinetic =     399.530261
siesta:       Hartree =     161.189356
siesta:         Edftu =       0.000000
siesta:       Eso     =       0.000000
siesta:    Ext. field =       0.000000
siesta:         Exch. =    -169.217643
siesta:         Corr. =     -17.686463
siesta:     Bulk bias =       0.000000
siesta:   Exch.-corr. =    -186.904106
siesta:  Ion-electron =    -718.475898
siesta:       Ion-ion =    -270.856038
siesta:       Ekinion =       0.000000
siesta: D3 dispersion =       0.000000
siesta:         Total =    -615.516425
siesta:         Fermi =      -4.557491

siesta: Stress tensor (static) (eV/Ang**3):
siesta:    -0.487916   -0.000556   -0.000000
siesta:    -0.000556   -0.488558   -0.000000
siesta:    -0.000000   -0.000000    0.047650

siesta: Cell volume =         35.184138 Ang**3

siesta: Pressure (static):
siesta:                Solid            Molecule  Units
siesta:           0.00337206          0.00337410  Ry/Bohr**3
siesta:           0.30960805          0.30979586  eV/Ang**3
siesta:         496.04677921        496.34769370  kBar
(Free)E+ p_basis*V_orbitals  =        -613.723990
(Free)Eharris+ p_basis*V_orbitals  =        -613.723990

cite: Please see "vdw_vv.bib" for an exhaustive BiBTeX file.
cite: Please clearly indicate Siesta version in published work: 5.0.0-beta1
cite: This calculation has made use of the following articles
cite: which are encouraged to be cited in a published work.
        Primary SIESTA paper
          DOI: www.doi.org/10.1088/0953-8984/14/11/302


timer: Elapsed wall time (sec) =       1.752
timer: CPU execution times (sec):

Routine            Calls   Time/call    Tot.time        %
siesta                 1       1.752       1.752   100.00
Setup                  1       0.371       0.371    21.16
bands                  1       0.000       0.000     0.00
KSV_init               1       0.000       0.000     0.00
IterGeom               1       1.380       1.380    78.78
geom_init              1       0.270       0.270    15.40
state_init             1       0.058       0.058     3.30
hsparse                1       0.007       0.007     0.39
overlap                1       0.032       0.032     1.85
Setup_H0               1       0.161       0.161     9.20
naefs                  2       0.000       0.000     0.02
MolMec                 2       0.000       0.000     0.00
kinefsm                2       0.020       0.040     2.31
nlefsm                 2       0.091       0.181    10.35
DHSCF_Init             1       0.027       0.027     1.55
DHSCF1                 1       0.001       0.001     0.08
INITMESH               1       0.000       0.000     0.00
DHSCF2                 1       0.026       0.026     1.47
REMESH                 1       0.003       0.003     0.18
REORD                 28       0.000       0.000     0.01
PHION                  1       0.020       0.020     1.16
COMM_BSC              43       0.000       0.000     0.01
POISON                11       0.000       0.001     0.08
fft                   22       0.000       0.001     0.07
setup_H                9       0.050       0.453    25.87
DHSCF                 10       0.062       0.616    35.14
DHSCF3                10       0.050       0.501    28.59
rhoofd                10       0.022       0.220    12.56
XC                    10       0.011       0.113     6.45
GXC-CellXC            10       0.011       0.113     6.45
gridxc@cellXC         10       0.011       0.113     6.45
gridxc@fft3d         700       0.000       0.008     0.48
vmat                  10       0.017       0.166     9.48
IterSCF                8       0.106       0.848    48.39
compute_dm             8       0.055       0.438    25.02
diagon                 8       0.055       0.437    24.97
c-eigval             200       0.001       0.133     7.58
c-buildHS            200       0.001       0.117     6.66
cdiag                400       0.000       0.046     2.63
cdiag1               400       0.000       0.002     0.13
cdiag2               400       0.000       0.009     0.51
cdiag3               400       0.000       0.032     1.83
c-eigvec             200       0.001       0.148     8.45
cdiag4               200       0.000       0.001     0.04
c-buildD             200       0.001       0.156     8.89
MIXER                  7       0.000       0.002     0.13
PostSCF                1       0.262       0.262    14.97
DHSCF4                 1       0.115       0.115     6.56
dfscf                  1       0.112       0.112     6.42
overfsm                1       0.009       0.009     0.52
writeHSX               1       0.000       0.000     0.03
state_analysis         1       0.000       0.000     0.01
siesta_move            1       0.000       0.000     0.00
Analysis               1       0.001       0.001     0.03
optical                1       0.000       0.000     0.00
  

>> End of run:  27-OCT-2023   8:54:20
Job completed
