Siesta Version  : 5.0.0-alpha-123-gfb8fd7d02
Architecture    : ----
Compiler version: GNU-11.4.0
Compiler flags  : -fallow-argument-mismatch;-O3 -march=native
PP flags        : ----
Libraries       : ----
Parallelisations: none
GEMM3M support
NetCDF support
NetCDF-4 support
Lua support

Runtime information:
* Directory : /home/fnpedron/Siesta/siesta-dev/Tests/02.SpinPolarization/work/fe_spin_directphi
* Running in serial mode.
>> Start of run:  28-SEP-2023  15:35:16

                           *********************** 
                           *  WELCOME TO SIESTA  * 
                           *********************** 

reinit: Reading from standard input
reinit: Dumping input in INPUT_TMP.10439
************************** Dump of input data file ****************************
%include ../../basejob.fdf
SystemLabel         fe_spin_directphi
Spin polarized
DirectPhi True
************************** End of input data file *****************************

reinit: -----------------------------------------------------------------------
reinit: System Name: Linear Fe3 cluster
reinit: -----------------------------------------------------------------------
reinit: System Label: fe_spin_directphi
reinit: -----------------------------------------------------------------------

initatom: Reading input for the pseudopotentials and atomic orbitals ----------
Species number:   1 Atomic number:   26 Label: Fe_nc


---- Processing specs for species: Fe_nc
Ground state valence configuration:   4s02  3d06
Reading pseudopotential information in formatted form from:
  /home/fnpedron/Siesta/siesta-dev/Tests/Pseudos/Fe_nc.psf

---- Pseudopotential check for Fe

Pseudized shells:
4s( 1.00) rc: 2.00
4p( 0.00) rc: 2.00
3d( 7.00) rc: 2.00
4f( 0.00) rc: 2.00
Valence configuration for ps generation: (assumed as above)
For Fe_nc, standard SIESTA heuristics set lmxkb to 3
 (one more than the basis l, including polarization orbitals).
Use PS.lmax or PS.KBprojectors blocks to override.

<basis_specs>
===============================================================================
Fe_nc                Z=  26    Mass=  55.845        Charge= 0.17977+309
Lmxo=2 Lmxkb= 3    BasisType=split      Semic=F
L=0  Nsemic=0  Cnfigmx=4
          i=1  nzeta=1  polorb=1  (4s)  (to be polarized perturbatively)
            splnorm:   0.15000    
               vcte:    40.000    
               rinn:  -0.90000    
               qcoe:    0.0000    
               qyuk:    0.0000    
               qwid:   0.10000E-01
                rcs:    0.0000    
            lambdas:    1.0000    
L=1  Nsemic=0  Cnfigmx=4
          i=1  nzeta=0  polorb=0  (4p)  (perturbative polarization orbital) (from 4s)
L=2  Nsemic=0  Cnfigmx=3
          i=1  nzeta=1  polorb=0  (3d)
            splnorm:   0.15000    
               vcte:    40.000    
               rinn:  -0.90000    
               qcoe:    0.0000    
               qyuk:    0.0000    
               qwid:   0.10000E-01
                rcs:    0.0000    
            lambdas:    1.0000    
-------------------------------------------------------------------------------
L=0  Nkbl=1  erefs: 0.17977+309
L=1  Nkbl=1  erefs: 0.17977+309
L=2  Nkbl=1  erefs: 0.17977+309
L=3  Nkbl=1  erefs: 0.17977+309
===============================================================================
</basis_specs>

Using PAO.SplitTailNorm
atom: Called for Fe_nc                 (Z =  26)
Maximum radius (at nrval) set to   50.00000 8518

read_vps: Pseudopotential generation method:
read_vps: ATM3      Troullier-Martins                       
Valence charge in pseudo generation:    8.00000

read_vps: Pseudopotential includes a core correction:
read_vps: Pseudo-core for xc-correction

xc_check: Exchange-correlation functional:
xc_check: Ceperley-Alder
V l=0 = -2*Zval/r beyond r=  2.8472
V l=1 = -2*Zval/r beyond r=  2.8472
V l=2 = -2*Zval/r beyond r=  2.8472
V l=3 = -2*Zval/r beyond r=  2.8472
All V_l potentials equal beyond r=  1.9894
This should be close to max(r_c) in ps generation
All pots = -2*Zval/r beyond r=  2.8472
Using large-core scheme (fit) for Vlocal

atom: Estimated core radius    2.84716
Fit of Vlocal with continuous 2nd derivative
Fitting vlocal at       1.9954
Choosing vlocal chloc cutoff:***  3.100644
qtot up to nchloc:    8.00000259
atom: Maximum radius for chlocal:    3.10064
atom: Maximum radius for r*vlocal+2*Zval:    3.10064

KBgen: Kleinman-Bylander projectors: 
GHOST: No ghost state for L =  0
   l= 0   rc=  1.991366   el= -0.319855   Ekb=  3.826230   kbcos=  0.253712
GHOST: No ghost state for L =  1
   l= 1   rc=  2.019582   el= -0.070931   Ekb=  3.335986   kbcos=  0.155791
GHOST: No ghost state for L =  2
   l= 2   rc=  1.989365   el= -0.307264   Ekb=-12.632066   kbcos= -0.657060
GHOST: No ghost state for L =  3
   l= 3   rc=  2.015527   el=  0.019538   Ekb= -1.701666   kbcos= -0.006384

KBgen: Total number of Kleinman-Bylander projectors:  16
atom: -------------------------------------------------------------------------

atom: SANKEY-TYPE ORBITALS:

SPLIT: Orbitals with angular momentum L= 0

SPLIT: Basis orbitals for state 4s

SPLIT: PAO cut-off radius determined from an
SPLIT: energy shift=  0.010000 Ry
Split based on tail norm

   izeta = 1
                 lambda =    1.000000
                     rc =    7.355669
                 energy =   -0.308198
                kinetic =    0.284874
    potential(screened) =   -0.593072
       potential(ionic) =   -5.763042

SPLIT: Orbitals with angular momentum L= 2

SPLIT: Basis orbitals for state 3d

SPLIT: PAO cut-off radius determined from an
SPLIT: energy shift=  0.010000 Ry
Split based on tail norm

   izeta = 1
                 lambda =    1.000000
                     rc =    4.584362
                 energy =   -0.296412
                kinetic =    8.773647
    potential(screened) =   -9.070058
       potential(ionic) =  -18.006145

POLgen: Perturbative polarization orbital with L=  1

POLgen: Polarization orbital for state 4s
Split based on tail norm

   izeta = 1
                     rc =    7.355669
                 energy =    0.004656
                kinetic =    0.554633
    potential(screened) =   -0.549977
       potential(ionic) =   -5.337881
atom: Total number of Sankey-type orbitals:  9

atm_pop: Valence configuration (for local Pseudopot. screening):
 4s( 2.00)                                                            
 4p( 0.00)                                                            
 3d( 6.00)                                                            
Vna: chval, zval:    8.00000   8.00000

Vna:  Cut-off radius for the neutral-atom potential:   7.355669
comcore: Pseudo-core radius Rcore=  3.839063

atom: _________________________________________________________________________

prinput: Basis input 

PAO.BasisType split     

%block ChemicalSpeciesLabel
    1   26 Fe_nc                   # Species index, atomic number, species label
%endblock ChemicalSpeciesLabel

%block PAO.Basis                 # Define Basis set
# WARNING: This information might be incomplete!
Fe_nc                 2                    # Species label, number of l-shells
 n=4   0   1 P   1                   # n, l, Nzeta, Polarization, NzetaPol
   7.356   
   1.000   
 n=3   2   1                         # n, l, Nzeta 
   4.584   
   1.000   
%endblock PAO.Basis

prinput: ----------------------------------------------------------------------

Dumping basis to NetCDF file Fe_nc.ion.nc
coor:   Atomic-coordinates input format  =     Cartesian coordinates
coor:                                            (in Bohr units)

siesta: Atomic coordinates (Bohr) and species
siesta:      0.00000   0.00000   3.64400  1        1
siesta:      0.00000   0.00000   0.00000  1        2
siesta:      0.00000   0.00000  -3.64400  1        3

siesta: System type = bulk      

initatomlists: Number of atoms, orbitals, and projectors:      3    27    48

siesta: ******************** Simulation parameters ****************************
siesta:
siesta: The following are some of the parameters of the simulation.
siesta: A complete list of the parameters used, including default values,
siesta: can be found in file out.fdf
siesta:
redata: Spin configuration                          = collinear
redata: Number of spin components                   = 2
redata: Time-Reversal Symmetry                      = T
redata: Spin spiral                                 = F
redata: Long output                                 =   F
redata: Number of Atomic Species                    =        1
redata: Charge density info will appear in .RHO file
redata: Write Mulliken Pop.                         = Atomic and Orbital charges
redata: Matel table size (NRTAB)                    =     1024
redata: Mesh Cutoff                                 =   100.0000 Ry
redata: Net charge of the system                    =     0.0000 |e|
redata: Min. number of SCF Iter                     =        0
redata: Max. number of SCF Iter                     =       20
redata: SCF mix quantity                            = Hamiltonian
redata: Mix DM or H after convergence               =   F
redata: Recompute H after scf cycle                 =   F
redata: Mix DM in first SCF step                    =   T
redata: Write Pulay info on disk                    =   F
redata: New DM Occupancy tolerance                  = 0.000000000001
redata: No kicks to SCF
redata: DM Mixing Weight for Kicks                  =     0.5000
redata: Require Harris convergence for SCF          =   F
redata: Harris energy tolerance for SCF             =     0.000100 eV
redata: Require DM convergence for SCF              =   T
redata: DM tolerance for SCF                        =     0.000100
redata: Require EDM convergence for SCF             =   F
redata: EDM tolerance for SCF                       =     0.001000 eV
redata: Require H convergence for SCF               =   T
redata: Hamiltonian tolerance for SCF               =     0.001000 eV
redata: Require (free) Energy convergence for SCF   =   F
redata: (free) Energy tolerance for SCF             =     0.000100 eV
redata: Antiferro initial spin density              =   F
redata: Using DFT-D3 dispersion                     =   F
redata: Using Saved Data (generic)                  =   F
redata: Use continuation files for DM               =   F
redata: Neglect nonoverlap interactions             =   F
redata: Method of Calculation                       = Diagonalization
redata: Electronic Temperature                      =   299.9863 K
redata: Fix the spin of the system                  =   F
redata: Max. number of TDED Iter                    =        1
redata: Number of TDED substeps                     =        3
redata: Dynamics option                             = Single-point calculation
mix.SCF: Pulay mixing                            = Pulay
mix.SCF:    Variant                              = stable
mix.SCF:    History steps                        = 8
mix.SCF:    Linear mixing weight                 =     0.010000
mix.SCF:    Mixing weight                        =     0.010000
mix.SCF:    SVD condition                        = 0.1000E-07
mix.SCF: Spin-component mixing                   all
redata: Save all siesta data in one NC              =   F
redata: ***********************************************************************

%block SCF.Mixers
  Pulay
%endblock SCF.Mixers

%block SCF.Mixer.Pulay
  # Mixing method
  method pulay
  variant stable

  # Mixing options
  weight 0.0100
  weight.linear 0.0100
  history 8
%endblock SCF.Mixer.Pulay

DM_history_depth set to one: no extrapolation allowed by default for geometry relaxation
Size of DM history Fstack: 1
Total number of electrons:    24.000000
Total ionic charge:    24.000000

siesta: k-grid: Number of k-points = 1
siesta: k-point is Gamma-only

diag: Algorithm                                     = D&C
diag: Used triangular part                          = Lower
diag: Absolute tolerance                            =  0.100E-15
diag: Orthogonalization factor                      =  0.100E-05
diag: Memory factor                                 =  1.0000


ts: **************************************************************
ts: Save H and S matrices                           =    F
ts: Save DM and EDM matrices                        =    F
ts: Only save the overlap matrix S                  =    F
ts: **************************************************************

************************ Begin: TS CHECKS AND WARNINGS ************************
************************ End: TS CHECKS AND WARNINGS **************************


                     ====================================
                        Single-point calculation
                     ====================================

outcell: Unit cell vectors (Ang):
        6.350127    0.000000    0.000000
        0.000000    6.350127    0.000000
        0.000000    0.000000   10.583544

outcell: Cell vector modules (Ang)   :    6.350127    6.350127   10.583544
outcell: Cell angles (23,13,12) (deg):     90.0000     90.0000     90.0000
outcell: Cell volume (Ang**3)        :    426.7720
Gamma-point calculation with interaction between periodic images
Some features might not work optimally:
e.g. DM initialization from atomic data
<dSpData1D:S at geom step 0
  <sparsity:sparsity for geom step 0
    nrows_g=27 nrows=27 sparsity=1.0000 nnzs=729, refcount: 7>
  <dData1D:(new from dSpData1D) n=729, refcount: 1>
refcount: 1>
new_DM -- step:     1
Initializing Density Matrix...

initDM: WARNING: noncollinear spins in DM.InitSpin not used because nspin < 4
DM filled with atomic data (user-defined):
<dSpData2D:DM initialized from atoms
  <sparsity:sparsity for geom step 0
    nrows_g=27 nrows=27 sparsity=1.0000 nnzs=729, refcount: 8>
  <dData2D:DM n=729 m=2, refcount: 1>
refcount: 1>
     spin moment: {S} , |S| = {        0.0        0.0    7.50000 }     7.50000
No. of atoms with KB's overlaping orbs in proc 0. Max # of overlaps:       3      27

InitMesh: MESH = 40 x 40 x 64 = 102400
InitMesh: Mesh cutoff (required, used) =   100.000   101.065 Ry
New grid distribution [1]: sub = 2

stepf: Fermi-Dirac step function

siesta: Program's energy decomposition (eV):
siesta: Ebs     =       236.750033
siesta: Eions   =      2102.576618
siesta: Ena     =        92.089899
siesta: Ekin    =      2809.864622
siesta: Enl     =     -1814.901842
siesta: Eso     =         0.000000
siesta: Edftu   =         0.000000
siesta: DEna    =      -117.576645
siesta: DUscf   =        56.508723
siesta: DUext   =         0.000000
siesta: Ex      =     -1118.003237
siesta: Ec      =       -97.852654
siesta: Exc     =     -1215.855891
siesta: EbV     =         0.000000
siesta: eta*DQ  =         0.000000
siesta: Emadel  =         0.000000
siesta: Emeta   =         0.000000
siesta: Emolmec =         0.000000
siesta: Ekinion =         0.000000
siesta: Eharris =     -2220.460140
siesta: Etot    =     -2292.447751
siesta: FreeEng =     -2292.486337

        iscf     Eharris(eV)        E_KS(eV)     FreeEng(eV)     dDmax    Ef(eV) dHmax(eV)
   scf:    1    -2220.460140    -2292.447751    -2292.486337  0.993786 -9.427433 35.275903
     spin moment: {S} , |S| = {        0.0        0.0    6.00000 }     6.00000
timer: Routine,Calls,Time,% = IterSCF        1       0.096  21.23
   scf:    2    -2296.906083    -2294.724149    -2294.761583  0.023437 -9.297429 33.557680
     spin moment: {S} , |S| = {        0.0        0.0    6.00000 }     6.00000
   scf:    3    -1865.896620    -2186.561213    -2186.570660  0.972551 -6.078307 43.730120
     spin moment: {S} , |S| = {        0.0        0.0    2.00000 }     2.00000
   scf:    4    -1134.895989    -1819.225381    -1819.299648  1.539476 15.732904172.761923
     spin moment: {S} , |S| = {        0.0        0.0    1.17114 }     1.17114
   scf:    5    -1875.620320    -1964.226482    -1964.226482  1.175272 -2.403480 91.339792
     spin moment: {S} , |S| = {        0.0        0.0   -0.00000 }    -0.00000
   scf:    6    -1906.630310    -1935.875057    -1935.875057  0.064250 -1.892976 98.032630
     spin moment: {S} , |S| = {        0.0        0.0    0.00000 }     0.00000
   scf:    7    -1973.464881    -1954.992373    -1954.992373  0.075059 -2.921024 92.295415
     spin moment: {S} , |S| = {        0.0        0.0    0.00000 }     0.00000
   scf:    8     -823.498825    -1993.721519    -1993.773041  0.997079  1.555014 61.033103
     spin moment: {S} , |S| = {        0.0        0.0    4.00000 }     4.00000
   scf:    9    -1650.031324    -1829.210940    -1829.213512  0.573296  3.101023 77.215313
     spin moment: {S} , |S| = {        0.0        0.0    0.01614 }     0.01614
   scf:   10     -476.448431    -1919.242525    -1919.242525  0.999335 -3.930849 95.242517
     spin moment: {S} , |S| = {        0.0        0.0    0.00000 }     0.00000
   scf:   11       47.954466    -1762.791599    -1762.810348  1.171319  5.396998 94.453761
     spin moment: {S} , |S| = {        0.0        0.0    0.19413 }     0.19413
   scf:   12    -1022.515562    -2080.613887    -2080.662047  1.532136 -8.181263 57.317943
     spin moment: {S} , |S| = {        0.0        0.0    2.00000 }     2.00000
   scf:   13      -46.075783    -1758.569448    -1758.624087  1.414123  4.408918 90.338098
     spin moment: {S} , |S| = {        0.0        0.0    1.91862 }     1.91862
   scf:   14    -1763.122261    -1760.868630    -1760.908758  0.146691  4.736646 91.571019
     spin moment: {S} , |S| = {        0.0        0.0    1.93989 }     1.93989
   scf:   15    -1770.565681    -1765.723199    -1765.761015  0.104621  4.256098 88.548687
     spin moment: {S} , |S| = {        0.0        0.0    1.97629 }     1.97629
   scf:   16    -1844.156790    -1805.319118    -1805.356543  0.365186  2.358291 75.771958
     spin moment: {S} , |S| = {        0.0        0.0    1.97766 }     1.97766
   scf:   17    -1739.974725    -1773.061427    -1773.103692  0.338367  2.759061 80.633527
     spin moment: {S} , |S| = {        0.0        0.0    1.97486 }     1.97486
   scf:   18    -1788.883607    -1781.137939    -1781.145876  0.154309  1.964053 75.972864
     spin moment: {S} , |S| = {        0.0        0.0    1.99966 }     1.99966
   scf:   19    -1764.281067    -1772.788991    -1772.836202  0.199917  2.114165 79.222732
     spin moment: {S} , |S| = {        0.0        0.0    2.00000 }     2.00000
   scf:   20    -1741.359975    -1757.210053    -1757.252705  0.263313  3.430519 84.751259
     spin moment: {S} , |S| = {        0.0        0.0    2.00000 }     2.00000
SCF_NOT_CONV: SCF did not converge  in maximum number of steps.
Geom step, scf iteration, dmax:    0    20     6.229103

Using DM_out to compute the final energy and forces
No. of atoms with KB's overlaping orbs in proc 0. Max # of overlaps:       3      27

siesta: E_KS(eV) =            -1757.2101

siesta: E_KS - E_eggbox =     -1757.2101
     spin moment: {S} , |S| = {        0.0        0.0    2.00000 }     2.00000

siesta: Atomic forces (eV/Ang):
----------------------------------------
   Tot    0.000000    0.000000   -0.000000
----------------------------------------
   Max   47.264967
   Res   22.280919    sqrt( Sum f_i^2 / 3N )
----------------------------------------
   Max   47.264967    constrained

Stress tensor Voigt[x,y,z,yz,xz,xy] (kbar):      -37.00      -37.00      696.80       -0.00        0.00        0.00
(Free)E + p*V (eV/cell)    -1812.5518
Target enthalpy (eV/cell)    -1757.2527

mulliken: Atomic and Orbital Populations:

mulliken: Spin UP 

Species: Fe_nc               
Atom  Qatom  Qorb
               4s      3dxy    3dyz    3dz2    3dxz    3dx2-y2 4Ppy    4Ppz    
               4Ppx    
   1  2.772   1.173  -0.000   0.005   0.017   0.005  -0.000   0.459   0.654
              0.459
   2  7.457   0.145   1.000   1.004   1.014   1.004   1.000   1.069   0.152
              1.069
   3  2.772   1.173  -0.000   0.005   0.017   0.005  -0.000   0.459   0.654
              0.459

mulliken: Qtot =       13.000

mulliken: Spin DOWN 

Species: Fe_nc               
Atom  Qatom  Qorb
               4s      3dxy    3dyz    3dz2    3dxz    3dx2-y2 4Ppy    4Ppz    
               4Ppx    
   1  1.750   1.094  -0.000   0.004   0.015   0.004  -0.000   0.051   0.532
              0.051
   2  7.500   0.193   1.000   1.009   1.015   1.009   1.000   1.075   0.124
              1.075
   3  1.750   1.094  -0.000   0.004   0.015   0.004  -0.000   0.051   0.532
              0.051

mulliken: Qtot =       11.000

siesta: Program's energy decomposition (eV):
siesta: Ebs     =       397.899256
siesta: Eions   =      2102.576618
siesta: Ena     =        92.089899
siesta: Ekin    =      1326.223984
siesta: Enl     =      -734.975623
siesta: Eso     =         0.000000
siesta: Edftu   =         0.000000
siesta: DEna    =       166.452270
siesta: DUscf   =       504.007941
siesta: DUext   =         0.000000
siesta: Ex      =      -919.172346
siesta: Ec      =       -89.259562
siesta: Exc     =     -1008.431908
siesta: EbV     =         0.000000
siesta: eta*DQ  =         0.000000
siesta: Emadel  =         0.000000
siesta: Emeta   =         0.000000
siesta: Emolmec =         0.000000
siesta: Ekinion =         0.000000
siesta: Eharris =     -1741.359975
siesta: Etot    =     -1757.210053
siesta: FreeEng =     -1757.252705

siesta: Final energy (eV):
siesta:  Band Struct. =     397.899256
siesta:       Kinetic =    1326.223984
siesta:       Hartree =    1378.102570
siesta:         Edftu =       0.000000
siesta:       Eso     =       0.000000
siesta:    Ext. field =       0.000000
siesta:         Exch. =    -919.172346
siesta:         Corr. =     -89.259562
siesta:     Bulk bias =       0.000000
siesta:   Exch.-corr. =   -1008.431908
siesta:  Ion-electron =   -3261.417309
siesta:       Ion-ion =    -191.687391
siesta:       Ekinion =       0.000000
siesta: D3 dispersion =       0.000000
siesta:         Total =   -1757.210053
siesta:         Fermi =       3.430519

siesta: Atomic forces (eV/Ang):
siesta:      1   -0.000000   -0.000000  -47.264967
siesta:      2   -0.000000   -0.000000   -0.000000
siesta:      3    0.000000    0.000000   47.264967
siesta: ----------------------------------------
siesta:    Tot    0.000000    0.000000   -0.000000

siesta: Stress tensor (static) (eV/Ang**3):
siesta:    -0.023093    0.000000    0.000000
siesta:     0.000000   -0.023093    0.000000
siesta:     0.000000   -0.000000    0.434911

siesta: Cell volume =        426.771969 Ang**3

siesta: Pressure (static):
siesta:                Solid            Molecule  Units
siesta:          -0.00141125          0.00013940  Ry/Bohr**3
siesta:          -0.12957525          0.01279908  eV/Ang**3
siesta:        -207.60244228         20.50639449  kBar
(Free)E+ p_basis*V_orbitals  =       -1755.178500
(Free)Eharris+ p_basis*V_orbitals  =       -1739.328422
     spin moment: {S} , |S| = {        0.0        0.0    2.00000 }     2.00000

cite: Please see "fe_spin_directphi.bib" for an exhaustive BiBTeX file.
cite: Please clearly indicate Siesta version in published work: 5.0.0-alpha-123-gfb8fd7d02
cite: This calculation has made use of the following articles
cite: which are encouraged to be cited in a published work.
        Primary SIESTA paper
          DOI: www.doi.org/10.1088/0953-8984/14/11/302


timer: Elapsed wall time (sec) =       2.417
timer: CPU execution times (sec):

Routine            Calls   Time/call    Tot.time        %
siesta                 1       2.416       2.416   100.00
Setup                  1       0.038       0.038     1.55
bands                  1       0.000       0.000     0.00
KSV_init               1       0.000       0.000     0.00
IterGeom               1       2.378       2.378    98.43
geom_init              1       0.319       0.319    13.19
state_init             1       0.025       0.025     1.05
hsparse                1       0.000       0.000     0.01
overlap                1       0.025       0.025     1.03
Setup_H0               1       0.201       0.201     8.31
naefs                  2       0.000       0.000     0.00
MolMec                 2       0.000       0.000     0.00
kinefsm                2       0.011       0.022     0.93
nlefsm                 2       0.064       0.129     5.34
DHSCF_Init             1       0.050       0.050     2.08
DHSCF1                 1       0.006       0.006     0.24
INITMESH               1       0.000       0.000     0.00
DHSCF2                 1       0.044       0.044     1.84
REMESH                 1       0.003       0.003     0.12
REORD                106       0.000       0.009     0.36
PHION                  1       0.004       0.004     0.18
COMM_BSC             180       0.000       0.011     0.45
POISON                23       0.002       0.051     2.09
fft                   46       0.001       0.038     1.58
setup_H               21       0.094       1.982    82.02
DHSCF                 22       0.097       2.141    88.63
DHSCF3                22       0.094       2.074    85.83
rhoofd                22       0.039       0.860    35.57
XC                    22       0.014       0.299    12.39
GXC-CellXC            22       0.013       0.279    11.54
gridxc@cellXC         22       0.013       0.279    11.53
vmat                  22       0.037       0.817    33.83
IterSCF               20       0.095       1.896    78.49
compute_dm            20       0.000       0.004     0.17
diagon                20       0.000       0.004     0.17
r-eigvec              40       0.000       0.003     0.12
r-buildHS             40       0.000       0.000     0.00
rdiag                 40       0.000       0.003     0.12
rdiag1                40       0.000       0.000     0.01
rdiag2                40       0.000       0.000     0.01
rdiag3                40       0.000       0.002     0.08
rdiag4                40       0.000       0.000     0.01
r-buildD              20       0.000       0.001     0.03
MIXER                 20       0.000       0.001     0.04
PostSCF                1       0.163       0.163     6.74
DHSCF4                 1       0.068       0.068     2.80
dfscf                  1       0.059       0.059     2.43
overfsm                1       0.000       0.000     0.01
state_analysis         1       0.000       0.000     0.01
siesta_move            1       0.000       0.000     0.00
Analysis               1       0.000       0.000     0.01
optical                1       0.000       0.000     0.00
  

>> End of run:  28-SEP-2023  15:35:19
Job completed
